<?xml version="1.0" encoding="utf-8"?>
<!-- Generator: Adobe Illustrator 19.1.0, SVG Export Plug-In . SVG Version: 6.00 Build 0)  -->
<svg version="1.1" id="Layer_1" xmlns="http://www.w3.org/2000/svg" xmlns:xlink="http://www.w3.org/1999/xlink" x="0px" y="0px"
	 viewBox="0 0 81.4 94" enable-background="new 0 0 81.4 94" xml:space="preserve">
<g id="star_3_">
	<path id="XMLID_163_" fill="#FFC95F" d="M73.9,38.7l-6.8-1.2c-6.3-1.2-13.2-6.5-15.2-11.7L44.4,5.7c-2-5.5-5-6-6.8-0.8L31,23.6
		c-1.8,5.5-8.5,10.5-15,11l-8,0.8c-6.5,0.7-8.5,5.5-4.7,10.7l6,7.5c3.8,4.9,5.3,13.5,3,19.5l-5,14c-2.2,6.3,0.5,7.8,6,3.5l16.4-12.2
		c5.5-3.8,14.5-4.9,20-2.7l14.7,5.5c5.5,1.8,8.7-0.3,6.8-4.9l-2.8-7.3c-1.8-4.7,0-12,4.2-16.2l5.8-5.5
		C82.1,43.8,80.3,39.9,73.9,38.7z"/>
	<g id="dots_3_">
		<g id="R_leg_2_">
			<path id="XMLID_162_" fill="#FFFFFF" d="M62.9,76.1c-0.5,0.5-1.4,0.3-2-0.2c-0.7-0.5-0.8-1.4-0.5-1.8c0.5-0.5,1.4-0.3,2,0.2
				C63.1,74.8,63.4,75.8,62.9,76.1z"/>
			<path id="XMLID_161_" fill="#FFFFFF" d="M67.1,79.2c-0.5,0.5-1,0.5-1.5,0.3c-0.3-0.3-0.3-0.8,0.2-1.4c0.5-0.5,1-0.5,1.5-0.3
				C67.6,78,67.6,78.7,67.1,79.2z"/>
			<path id="XMLID_160_" fill="#FFFFFF" d="M57.9,71.5c-0.5,0.5-1.5,0.5-2.2-0.2c-0.7-0.5-0.8-1.4-0.3-1.8C56,69,57,69,57.6,69.6
				C58.2,70.1,58.2,71,57.9,71.5z"/>
			<path id="XMLID_159_" fill="#FFFFFF" d="M53.7,67.5c-0.7,0.7-1.8,0.8-2.7,0.2c-0.7-0.7-0.7-1.7,0-2.3s1.8-0.8,2.7-0.2
				C54.6,65.8,54.4,66.8,53.7,67.5z"/>
			<path id="XMLID_158_" display="none" fill="#FFFFFF" d="M46.7,61.4c-1.2,0-2.2-1-2.2-2.2s1-2.2,2.2-2.2c1.2,0,2.2,1,2.2,2.2
				C48.9,60.4,47.9,61.4,46.7,61.4z"/>
		</g>
		<g id="R_arm_2_">
			<path id="XMLID_157_" fill="#FFFFFF" d="M69.1,45.9c-0.8,0.2-1.8-0.2-1.8-0.7c0-0.5,0.5-1.2,1.5-1.4c0.8-0.2,1.8,0.2,1.8,0.7
				C70.6,45.3,70,45.8,69.1,45.9z"/>
			<path id="XMLID_156_" fill="#FFFFFF" d="M74.9,44.9c-0.5,0.2-1-0.3-1.2-0.8c-0.2-0.5,0.2-1.2,0.7-1.2c0.5-0.2,1,0.3,1.2,0.8
				C75.6,44.3,75.4,44.8,74.9,44.9z"/>
			<path id="XMLID_155_" display="none" fill="#FFFFFF" d="M61.9,47.4c-0.8,0.2-1.7-0.2-1.8-0.8c-0.2-0.7,0.5-1.4,1.4-1.5
				c0.8-0.2,1.7,0.2,1.8,0.8C63.4,46.6,62.8,47.3,61.9,47.4z"/>
			<path id="XMLID_154_" display="none" fill="#FFFFFF" d="M52.4,47.8c-0.2-1,0.3-1.8,1.4-2c1-0.2,1.8,0.5,2.2,1.4
				c0.2,1-0.3,1.8-1.4,2C53.6,49.5,52.6,48.8,52.4,47.8z"/>
			<path id="XMLID_153_" display="none" fill="#FFFFFF" d="M42.6,50.8c0-1.2,1-2.2,2.2-2.2c1.2,0,2.2,1,2.2,2.2c0,1.2-1,2.2-2.2,2.2
				C43.6,52.8,42.6,52,42.6,50.8z"/>
		</g>
		<g id="L_leg_4_">
			<path id="XMLID_152_" fill="#FFFFFF" d="M21.9,75.8c-0.5,0.7-1.5,1-2.2,0.5c-0.7-0.3-0.8-1.4-0.3-2c0.5-0.7,1.5-1,2.2-0.5
				C22.4,74.3,22.4,75.1,21.9,75.8z"/>
			<path id="XMLID_151_" fill="#FFFFFF" d="M28.4,69.5c-0.5,0.7-1.7,1-2.5,0.3c-0.8-0.5-1.2-1.5-0.7-2.3c0.5-0.7,1.7-1,2.5-0.3
				C28.6,67.8,28.9,68.8,28.4,69.5z"/>
			<path id="XMLID_150_" fill="#FFFFFF" d="M16.5,81.6c-0.5,0.7-1.4,0.8-2,0.5c-0.7-0.3-0.7-1.2-0.2-1.8c0.5-0.7,1.4-1,2-0.7
				C17,80.2,17,81,16.5,81.6z"/>
			<path id="XMLID_149_" fill="#FFFFFF" d="M12,87.3c-0.5,0.7-1.4,1-1.8,0.7c-0.5-0.3-0.5-1.2,0-1.8c0.5-0.7,1.4-1,1.8-0.7
				C12.5,85.8,12.5,86.7,12,87.3z"/>
			<path id="XMLID_148_" display="none" fill="#FFFFFF" d="M32.1,63.6c-1.2,0-2.2-1-2.2-2.2c0-1.2,1-2.2,2.2-2.2
				c1.2,0,2.2,1,2.2,2.2C34.1,62.6,33.2,63.6,32.1,63.6z"/>
		</g>
		<g id="L_arm_4_">
			<path id="XMLID_147_" fill="#FFFFFF" d="M7.2,41.8C7,42.3,6.5,42.6,6,42.4c-0.5-0.2-0.7-0.7-0.3-1.4c0.2-0.5,0.8-0.8,1.4-0.7
				C7.5,40.6,7.5,41.3,7.2,41.8z"/>
			<path id="XMLID_146_" fill="#FFFFFF" d="M13.5,44.9c-0.2,0.5-1.2,0.7-2,0.3c-0.8-0.3-1.4-1-1.2-1.5c0.2-0.5,1.2-0.7,2-0.3
				C13.2,43.6,13.7,44.3,13.5,44.9z"/>
			<path id="XMLID_145_" display="none" fill="#FFFFFF" d="M17.5,46.6c0.3-0.7,1.2-0.8,2-0.5c0.8,0.3,1.4,1,1,1.7
				c-0.3,0.7-1.2,0.8-2,0.5C17.7,47.9,17.4,47.1,17.5,46.6z"/>
			<path id="XMLID_144_" display="none" fill="#FFFFFF" d="M28.4,51.3c-0.3,1-1.4,1.4-2.3,1c-0.8-0.3-1.4-1.4-1-2.2
				c0.4-0.8,1.5-1.4,2.3-1C28.4,49.5,28.9,50.4,28.4,51.3z"/>
			<path id="XMLID_143_" display="none" fill="#FFFFFF" d="M36.2,55c-1.2,0-2.2-1-2.2-2.2c0-1.2,1-2.2,2.2-2.2c1.2,0,2.2,1,2.2,2.2
				C38.4,54,37.4,55,36.2,55z"/>
		</g>
		<g id="head_4_">
			<path id="XMLID_142_" fill="#FFFFFF" d="M40.2,30.7c1,0,1.8,0.7,1.8,1.7c0,0.8-0.8,1.7-1.8,1.7c-1,0-1.8-0.7-1.8-1.7
				C38.4,31.4,39.2,30.7,40.2,30.7z"/>
			<path id="XMLID_141_" display="none" fill="#FFFFFF" d="M40.2,45.6c-1.2,0-2.2-1-2.2-2.2c0-1.2,1-2.2,2.2-2.2
				c1.2,0,2.2,1,2.2,2.2S41.4,45.6,40.2,45.6z"/>
			<path id="XMLID_140_" fill="#FFFFFF" d="M40.2,23.6c0.8,0,1.5,0.7,1.5,1.5c0,0.8-0.7,1.5-1.5,1.5c-0.8,0-1.5-0.7-1.5-1.5
				C38.7,24.2,39.4,23.6,40.2,23.6z"/>
			<path id="XMLID_139_" fill="#FFFFFF" d="M40.2,16.6c0.7,0,1.4,0.7,1.4,1.5s-0.7,1.5-1.4,1.5c-0.7,0-1.4-0.7-1.4-1.5
				S39.6,16.6,40.2,16.6z"/>
			<path id="XMLID_138_" fill="#FFFFFF" d="M40.2,9.9c0.7,0,1.2,0.7,1.2,1.5c0,0.8-0.5,1.5-1.2,1.5c-0.7,0-1.2-0.7-1.2-1.5
				S39.6,9.9,40.2,9.9z"/>
		</g>
	</g>
</g>
<path id="nose_9_" fill="none" stroke="#4D4D4D" stroke-width="0.5274" stroke-linecap="round" stroke-miterlimit="10" d="
	M37.5,52.9c0.3-0.2,1-0.5,1.9-0.6c1,0,1.7,0.4,2,0.5"/>
<circle fill="#FFFFFF" cx="27.4" cy="49" r="5.2"/>
<circle fill="#4D4D4D" cx="27.4" cy="48.7" r="2.4"/>
<ellipse transform="matrix(0.9962 -8.685502e-02 8.685502e-02 0.9962 -4.5799 2.6365)" fill="#FFC95F" stroke="#FFC95F" stroke-width="0.7988" stroke-miterlimit="10" cx="28" cy="53.9" rx="5.9" ry="2.5"/>
<path id="L_brow_18_" fill="none" stroke="#4D4D4D" stroke-width="0.6744" stroke-linecap="round" stroke-miterlimit="10" d="
	M21.2,41.4c0.3-0.3,1.6-1.5,3.8-2c2-0.5,3.6,0,4.1,0.1"/>
<path id="L_brow_17_" fill="none" stroke="#4D4D4D" stroke-width="0.6744" stroke-linecap="round" stroke-miterlimit="10" d="
	M58.6,41.4c-0.3-0.3-1.6-1.5-3.8-2c-2-0.5-3.6,0-4.1,0.1"/>
<circle fill="#FFFFFF" cx="52.5" cy="49" r="5.2"/>
<circle fill="#4D4D4D" cx="52.5" cy="48.7" r="2.4"/>
<ellipse transform="matrix(-0.9962 -8.685502e-02 8.685502e-02 -0.9962 98.8315 112.1991)" fill="#FFC95F" stroke="#FFC95F" stroke-width="0.7988" stroke-miterlimit="10" cx="51.9" cy="53.9" rx="5.9" ry="2.5"/>
<path id="mouth_6_" fill="none" stroke="#4D4D4D" stroke-width="0.5991" stroke-linecap="round" stroke-miterlimit="10" d="
	M35.4,58.4c0.5,0.4,2,1.4,4,1.5c2.5,0.1,4.3-1.1,4.8-1.5"/>
</svg>
