<?xml version="1.0" encoding="utf-8"?>
<!-- Generator: Adobe Illustrator 19.1.0, SVG Export Plug-In . SVG Version: 6.00 Build 0)  -->
<svg version="1.1" id="Layer_3" xmlns="http://www.w3.org/2000/svg" xmlns:xlink="http://www.w3.org/1999/xlink" x="0px" y="0px"
	 viewBox="0 0 80.7 89.6" enable-background="new 0 0 80.7 89.6" xml:space="preserve">
<symbol  id="LookUp" viewBox="-1 -21 39 21">
	<path fill="#FFFFFF" d="M11.5-10c0-2.8-2.3-5.1-5.1-5.1S1.2-12.8,1.2-10s2.3,5.1,5.1,5.1S11.5-7.2,11.5-10z"/>
	<path fill="#4D4D4D" d="M8.7-8.1c0-1.3-1-2.3-2.3-2.3S4-9.4,4-8.1s1,2.3,2.3,2.3S8.7-6.9,8.7-8.1z"/>
	<path fill="#FFC95F" d="M12.7-14.4c-0.1,1.3-2.8,2.2-5.9,1.9c-3.2-0.3-5.6-1.6-5.5-2.9s2.8-2.2,5.9-1.9
		C10.3-17,12.8-15.7,12.7-14.4z"/>
	<path id="L_brow_50_" fill="none" stroke="#4D4D4D" stroke-width="0.6611" stroke-linecap="round" stroke-miterlimit="10" d="
		M0.3-2.5c0.3,0.3,1.6,1.5,3.8,2c2,0.4,3.5,0,4-0.1"/>
	<path id="L_brow_49_" fill="none" stroke="#4D4D4D" stroke-width="0.6611" stroke-linecap="round" stroke-miterlimit="10" d="
		M37-2.5c-0.3,0.3-1.6,1.5-3.8,2c-2,0.4-3.5,0-4-0.1"/>
	<path fill="#FFFFFF" d="M25.8-10c0-2.8,2.3-5.1,5.1-5.1s5.1,2.3,5.1,5.1s-2.3,5.1-5.1,5.1S25.8-7.2,25.8-10z"/>
	<path fill="#4D4D4D" d="M28.6-8.1c0-1.3,1-2.3,2.3-2.3c1.3,0,2.3,1,2.3,2.3s-1,2.3-2.3,2.3C29.7-5.8,28.6-6.9,28.6-8.1z"/>
	<path fill="#FFC95F" d="M24.6-14.4c0.1,1.3,2.8,2.2,5.9,1.9c3.2-0.3,5.6-1.6,5.5-2.9c-0.1-1.3-2.8-2.2-5.9-1.9
		C27-17,24.5-15.7,24.6-14.4z"/>
	<path id="nose_25_" fill="none" stroke="#4D4D4D" stroke-width="0.517" stroke-linecap="round" stroke-miterlimit="10" d="
		M16.2-13.8c0.3,0.2,1,0.5,1.9,0.5c1,0,1.7-0.3,1.9-0.5"/>
	<path id="mouth_16_" fill="none" stroke="#4D4D4D" stroke-width="0.5873" stroke-linecap="round" stroke-miterlimit="10" d="
		M14.2-19.3c0.5-0.4,1.9-1.3,3.9-1.4c2.5-0.1,4.2,1.1,4.7,1.4"/>
	<polygon display="none" fill="none" points="-1,-1 38,-1 38,-21 -1,-21 	"/>
</symbol>
<path fill="#FFC95F" stroke="#FFC95F" stroke-width="1.0994" stroke-miterlimit="10" d="M55.1,87.6c-2.1,0.1-3-4.9-9.3-12.7
	c-3.2-3.9-6.4-6.7-8.5-8.4c-4.9,3.6-12,8.2-21.3,12.2c-3.7,1.6-12.3,5.3-14.1,3.6C0.2,80.7,5,76,8.7,67.7C12,60.5,13,53.8,13.3,49
	c-1.3-2.8-3-6.7-5-11.5C3.1,25.5,2.4,22.4,2.1,20C0.8,12.1,2.1,4.6,3.7,4.5c1.7-0.2,1.9,9,10.2,16.1c2.8,2.4,5.4,4.6,8.3,4.2
	c6.1-0.8,4.2-11.9,14.6-19.1C42.1,2,49.2,0.3,50.6,1.8c1.2,1.2-2.7,3.8-4.2,9.5c-0.1,0.5-2.4,9.5,3.7,15c2.9,2.6,6.8,3.4,14.5,5.1
	c9.4,2,14,1.4,14.5,3.1c0.6,1.7-4.2,3.2-12,9.4c-4.3,3.5-6.5,5.3-7.8,8c-2.2,4.5-0.2,7.7,0.7,13.5C61.7,76.3,58.1,87.4,55.1,87.6z"
	/>
<use xlink:href="#LookUp"  width="39" height="21" id="XMLID_135_" x="-1" y="-21" transform="matrix(0.9915 0.1301 0.1301 -0.9915 19 31)" overflow="visible"/>
<path id="XMLID_303_" fill="#FFFFFF" d="M36.2,23.7c1,0,1.8,0.7,1.8,1.7c0,0.8-0.8,1.7-1.8,1.7s-1.8-0.7-1.8-1.7
	C34.4,24.4,35.2,23.7,36.2,23.7z"/>
<path id="XMLID_301_" fill="#FFFFFF" d="M37.2,15.5c0.8,0,1.5,0.7,1.5,1.5c0,0.8-0.7,1.5-1.5,1.5c-0.8,0-1.5-0.7-1.5-1.5
	C35.7,16.2,36.4,15.5,37.2,15.5z"/>
<path id="XMLID_300_" fill="#FFFFFF" d="M39.2,8.5c0.7,0,1.4,0.7,1.4,1.5c0,0.8-0.7,1.5-1.4,1.5c-0.7,0-1.4-0.7-1.4-1.5
	C37.9,9.2,38.6,8.5,39.2,8.5z"/>
<path id="XMLID_299_" fill="#FFFFFF" d="M44.2,3.8c0.7,0,1.2,0.7,1.2,1.5c0,0.8-0.5,1.5-1.2,1.5c-0.7,0-1.2-0.7-1.2-1.5
	S43.6,3.8,44.2,3.8z"/>
<path id="XMLID_343_" fill="#FFFFFF" d="M56,79.2c-0.5,0.5-1.4,0.3-2-0.2c-0.7-0.5-0.8-1.4-0.5-1.8c0.5-0.5,1.4-0.3,2,0.2
	C56.1,77.9,56.5,78.9,56,79.2z"/>
<path id="XMLID_335_" fill="#FFFFFF" d="M56.1,85.2c-0.5,0.5-1,0.5-1.5,0.3c-0.3-0.3-0.3-0.8,0.2-1.4c0.5-0.5,1-0.5,1.5-0.3
	C56.6,84,56.6,84.7,56.1,85.2z"/>
<path id="XMLID_321_" fill="#FFFFFF" d="M53.9,71.5c-0.5,0.5-1.5,0.5-2.2-0.2c-0.7-0.5-0.8-1.4-0.3-1.8C52,69,53,69,53.6,69.7
	C54.3,70.2,54.3,71,53.9,71.5z"/>
<path id="XMLID_320_" fill="#FFFFFF" d="M50.8,64.5c-0.7,0.7-1.8,0.8-2.7,0.2c-0.7-0.7-0.7-1.7,0-2.4c0.7-0.7,1.8-0.8,2.7-0.2
	C51.6,62.8,51.4,63.8,50.8,64.5z"/>
<path id="XMLID_313_" fill="#FFFFFF" d="M19.8,70.9c-0.5,0.7-1.5,1-2.2,0.5c-0.7-0.3-0.8-1.4-0.3-2c0.5-0.7,1.5-1,2.2-0.5
	C20.3,69.3,20.3,70.2,19.8,70.9z"/>
<path id="XMLID_312_" fill="#FFFFFF" d="M26.4,64.5c-0.5,0.7-1.7,1-2.5,0.3c-0.8-0.5-1.2-1.5-0.7-2.4c0.5-0.7,1.7-1,2.5-0.3
	C26.5,62.8,26.9,63.8,26.4,64.5z"/>
<path id="XMLID_311_" fill="#FFFFFF" d="M13.5,75.7c-0.5,0.7-1.4,0.8-2,0.5c-0.7-0.3-0.7-1.2-0.2-1.8c0.5-0.7,1.4-1,2-0.7
	C14,74.2,14,75,13.5,75.7z"/>
<path id="XMLID_310_" fill="#FFFFFF" d="M6,79.4c-0.5,0.7-1.4,1-1.8,0.7c-0.5-0.3-0.5-1.2,0-1.8s1.4-1,1.8-0.7S6.5,78.7,6,79.4z"/>
<path id="XMLID_318_" fill="#FFFFFF" d="M69.2,37.9c-0.8,0.2-1.8-0.2-1.8-0.7c0-0.5,0.5-1.2,1.5-1.4c0.8-0.2,1.8,0.2,1.8,0.7
	C70.6,37.3,70,37.8,69.2,37.9z"/>
<path id="XMLID_317_" fill="#FFFFFF" d="M75,35.9c-0.5,0.2-1-0.3-1.2-0.8c-0.2-0.5,0.2-1.2,0.7-1.2c0.5-0.2,1,0.3,1.2,0.8
	C75.7,35.3,75.5,35.8,75,35.9z"/>
<path id="XMLID_308_" fill="#FFFFFF" d="M4.1,9.8C4,10.3,3.5,10.6,3,10.4c-0.5-0.2-0.7-0.7-0.3-1.4C2.8,8.6,3.5,8.2,4,8.4
	C4.5,8.6,4.5,9.2,4.1,9.8z"/>
<path id="XMLID_307_" fill="#FFFFFF" d="M5.5,16.9c-0.5,0.2-1.3-0.4-1.6-1.3c-0.3-0.8-0.2-1.7,0.3-1.9c0.5-0.2,1.3,0.4,1.6,1.3
	C6.3,15.8,6.2,16.6,5.5,16.9z"/>
</svg>
