<?xml version="1.0" encoding="utf-8"?>
<!-- Generator: Adobe Illustrator 19.1.0, SVG Export Plug-In . SVG Version: 6.00 Build 0)  -->
<svg version="1.1" id="Layer_6" xmlns="http://www.w3.org/2000/svg" xmlns:xlink="http://www.w3.org/1999/xlink" x="0px" y="0px"
	 viewBox="0 0 87 92.8" enable-background="new 0 0 87 92.8" xml:space="preserve">
<symbol  id="lookLeft" viewBox="-1 -24.8 39 24.8">
	<path fill="#FFFFFF" d="M11.5-11.6c0-2.8-2.3-5.1-5.1-5.1s-5.1,2.3-5.1,5.1s2.3,5.1,5.1,5.1S11.5-8.7,11.5-11.6z"/>
	<path fill="#4D4D4D" d="M7.1-9.7c0-1.3-1-2.3-2.3-2.3s-2.3,1-2.3,2.3s1,2.3,2.3,2.3S7.1-8.4,7.1-9.7z"/>
	<path fill="#FFC95F" d="M12.7-15.9c-0.1,1.3-2.8,2.2-5.9,1.9c-3.2-0.3-5.6-1.6-5.5-2.9s2.8-2.2,5.9-1.9S12.8-17.3,12.7-15.9z"/>
	<path id="L_brow_12_" fill="none" stroke="#4D4D4D" stroke-width="0.6611" stroke-linecap="round" stroke-miterlimit="10" d="
		M0.3-2.5c0.3,0.3,1.6,1.5,3.8,2c2,0.4,3.5,0,4-0.1"/>
	<path id="L_brow_11_" fill="none" stroke="#4D4D4D" stroke-width="0.6611" stroke-linecap="round" stroke-miterlimit="10" d="
		M37-4.9c-0.3,0.3-1.6,1.5-3.8,2c-2,0.4-3.5,0-4-0.1"/>
	<path fill="#FFFFFF" d="M25.8-11.6c0-2.8,2.3-5.1,5.1-5.1s5.1,2.3,5.1,5.1s-2.3,5.1-5.1,5.1S25.8-8.7,25.8-11.6z"/>
	<path fill="#4D4D4D" d="M27.1-9.7c0-1.3,1-2.3,2.3-2.3s2.3,1,2.3,2.3s-1,2.3-2.3,2.3S27.1-8.4,27.1-9.7z"/>
	<path fill="#FFC95F" d="M24.6-15.9c0.1,1.3,2.8,2.2,5.9,1.9c3.2-0.3,5.6-1.6,5.5-2.9c-0.1-1.3-2.8-2.2-5.9-1.9S24.5-17.3,24.6-15.9
		z"/>
	<path id="nose_6_" fill="none" stroke="#4D4D4D" stroke-width="0.517" stroke-linecap="round" stroke-miterlimit="10" d="
		M16.2-15.4c0.3,0.2,1,0.5,1.9,0.5c1,0,1.7-0.3,1.9-0.5"/>
	<path fill="#4D4D4D" stroke="#4D4D4D" stroke-width="0.5146" stroke-miterlimit="10" d="M22.3-21.5c-1.8-0.8-3.4-0.7-4-0.7
		c-3.1,0.1-5.3,1.8-5.4,1.5c-0.1-0.1,0.4-0.6,1.5-1.5c0.3-0.3,1.1-1,2.2-1.7c0.3-0.2,1.1-0.7,1.9-0.7c0,0,0.1,0,0.1,0
		c0.7,0.1,1.2,0.4,1.4,0.6c0.8,0.6,1.5,1.3,2.1,1.9c1.1,1,2,1.5,2,1.6C24-20.5,23.2-21.1,22.3-21.5z"/>
	<polygon display="none" fill="none" points="-1,-1 38,-1 38,-24 -1,-24 	"/>
</symbol>
<path fill="#FFC95F" stroke="#FFC95F" stroke-width="1.0712" stroke-miterlimit="10" d="M68.5,90.9c-2.5,0.4-4.2-7.8-14.2-17.7
	c-2.6-2.6-4.9-4.5-6.5-5.7c-4.7,3.7-11.4,8.2-20.2,12.3c-6.2,2.8-11.7,5.4-13.4,3.6c-2.1-2.3,4-8.5,7.5-23.1
	c1.9-7.8,1.4-11.6,1-13.7c-0.8-4.4-2.7-7.4-6.3-12.7C5.7,18.6,0.8,14.3,2,12.5c1.9-2.8,16.8,3.7,17.8,4.1c9.7,4.1,11.7,7.1,15.1,6.2
	c4.3-1.2,3.2-6.4,9.9-14c0.4-0.4,8.1-9.1,11.8-7.6c0.7,0.3,2,1.2,2,12.7c-0.1,10.7-1.3,13.3,1.2,16c2.6,2.9,7.1,3.5,11.1,4
	c8.3,1.2,12.8-1.4,14.2,0.4c1.8,2.4-5.5,9.3-7.2,11c-5,4.8-7,4.2-8.8,7c-3,4.8,0.8,8.9,2.4,18C73.2,80.2,71.3,90.5,68.5,90.9z"/>
<path id="XMLID_224_" fill="#FFFFFF" d="M48.2,24.7c1,0,1.8,0.7,1.8,1.7c0,0.8-0.8,1.7-1.8,1.7s-1.8-0.7-1.8-1.7
	C46.4,25.4,47.2,24.7,48.2,24.7z"/>
<path id="XMLID_223_" fill="#FFFFFF" d="M48.2,16.5c0.8,0,1.5,0.7,1.5,1.5c0,0.8-0.7,1.5-1.5,1.5c-0.8,0-1.5-0.7-1.5-1.5
	C46.7,17.2,47.4,16.5,48.2,16.5z"/>
<path id="XMLID_222_" fill="#FFFFFF" d="M50.2,9.5c0.7,0,1.4,0.7,1.4,1.5c0,0.8-0.7,1.5-1.4,1.5c-0.7,0-1.4-0.7-1.4-1.5
	C48.9,10.2,49.6,9.5,50.2,9.5z"/>
<path id="XMLID_217_" fill="#FFFFFF" d="M54.2,3.8c0.7,0,1.2,0.7,1.2,1.5c0,0.8-0.5,1.5-1.2,1.5c-0.7,0-1.2-0.7-1.2-1.5
	S53.6,3.8,54.2,3.8z"/>
<path id="XMLID_228_" fill="#FFFFFF" d="M69,82.2c-0.5,0.5-1.4,0.3-2-0.2c-0.7-0.5-0.8-1.4-0.5-1.8c0.5-0.5,1.4-0.3,2,0.2
	C69.1,80.9,69.5,81.9,69,82.2z"/>
<path id="XMLID_227_" fill="#FFFFFF" d="M69.1,88.2c-0.5,0.5-1,0.5-1.5,0.3c-0.3-0.3-0.3-0.8,0.2-1.4c0.5-0.5,1-0.5,1.5-0.3
	C69.6,87,69.6,87.7,69.1,88.2z"/>
<path id="XMLID_226_" fill="#FFFFFF" d="M65.9,75.5c-0.5,0.5-1.5,0.5-2.2-0.2c-0.7-0.5-0.8-1.4-0.3-1.8C64,73,65,73,65.6,73.7
	C66.3,74.2,66.3,75,65.9,75.5z"/>
<path id="XMLID_225_" fill="#FFFFFF" d="M61.8,67.5c-0.7,0.7-1.8,0.8-2.7,0.2c-0.7-0.7-0.7-1.7,0-2.4c0.7-0.7,1.8-0.8,2.7-0.2
	C62.6,65.8,62.4,66.8,61.8,67.5z"/>
<path id="XMLID_210_" fill="#FFFFFF" d="M32.8,70.9c-0.5,0.7-1.5,1-2.2,0.5c-0.7-0.3-0.8-1.4-0.3-2c0.5-0.7,1.5-1,2.2-0.5
	C33.3,69.3,33.3,70.2,32.8,70.9z"/>
<path id="XMLID_201_" fill="#FFFFFF" d="M37.4,62.5c-0.5,0.7-1.7,1-2.5,0.3c-0.8-0.5-1.2-1.5-0.7-2.4c0.5-0.7,1.7-1,2.5-0.3
	C37.5,60.8,37.9,61.8,37.4,62.5z"/>
<path id="XMLID_200_" fill="#FFFFFF" d="M26.5,76.7c-0.5,0.7-1.4,0.8-2,0.5c-0.7-0.3-0.7-1.2-0.2-1.8c0.5-0.7,1.4-1,2-0.7
	C27,75.2,27,76,26.5,76.7z"/>
<path id="XMLID_199_" fill="#FFFFFF" d="M19,81.4c-0.5,0.7-1.4,1-1.8,0.7c-0.5-0.3-0.5-1.2,0-1.8s1.4-1,1.8-0.7S19.5,80.7,19,81.4z"
	/>
<path id="XMLID_194_" fill="#FFFFFF" d="M77.2,38.9c-0.8,0.2-1.8-0.2-1.8-0.7c0-0.5,0.5-1.2,1.5-1.4c0.8-0.2,1.8,0.2,1.8,0.7
	C78.6,38.3,78,38.8,77.2,38.9z"/>
<path id="XMLID_189_" fill="#FFFFFF" d="M83,36.9c-0.5,0.2-1-0.3-1.2-0.8c-0.2-0.5,0.2-1.2,0.7-1.2c0.5-0.2,1,0.3,1.2,0.8
	C83.7,36.3,83.5,36.8,83,36.9z"/>
<path id="XMLID_182_" fill="#FFFFFF" d="M6.1,14.8C6,15.3,5.5,15.6,5,15.4c-0.5-0.2-0.7-0.7-0.3-1.4c0.2-0.5,0.8-0.8,1.4-0.7
	C6.5,13.6,6.5,14.2,6.1,14.8z"/>
<path id="XMLID_27_" fill="#FFFFFF" d="M12.9,20.7c-0.4,0.3-1.3-0.1-1.8-0.8c-0.5-0.7-0.6-1.6-0.1-1.9c0.4-0.3,1.3,0.1,1.8,0.8
	C13.4,19.4,13.4,20.3,12.9,20.7z"/>
<use xlink:href="#lookLeft"  width="39" height="24.8" x="-1" y="-24.8" transform="matrix(0.9516 0.3073 0.3073 -0.9516 35 27)" overflow="visible"/>
</svg>
