<!-- Generator: Adobe Illustrator 18.1.1, SVG Export Plug-In  -->
<svg version="1.1"
	 xmlns="http://www.w3.org/2000/svg" xmlns:xlink="http://www.w3.org/1999/xlink" xmlns:a="http://ns.adobe.com/AdobeSVGViewerExtensions/3.0/"
	 x="0px" y="0px" width="1022.2px" height="108.7px" viewBox="0 0 1022.2 108.7" enable-background="new 0 0 1022.2 108.7"
	 xml:space="preserve">
<defs>
</defs>
<path fill="#FFECCB" stroke="#FFECCB" stroke-width="0.9962" stroke-miterlimit="10" d="M984.2,0.5c-7.1,0-14.3,0.6-21.4,1.7
	c-3.6,0.6-7.1,1.3-10.6,2.3c-0.9,0.2-1.8,0.5-2.8,0.8l-2.6,0.9c-1.7,0.6-3.3,1.2-4.9,1.8c-13,4.9-24.8,11.1-36,17.1
	c-11.2,6-21.8,12-32.1,16.7c-1.3,0.6-2.6,1.2-3.9,1.7l-1.9,0.8l-2,0.8l-8.1,3.3c-5.4,2.2-10.7,4.2-16,6.2
	c-21.1,8-41.3,14.7-60.3,20.2c-38,11-71.4,16.9-97.6,20.4c-26.3,3.4-45.4,4.7-55.4,5.9c-5,0.6-11.7,1.1-19.4,1.4
	c-7.8,0.4-16.7,0.6-26.3,0.5c-19.3-0.2-41.7-2.1-63.8-7.8c-22.5-5.5-45-12.8-65.4-18.9c-10.2-3.1-19.9-5.9-28.7-8.3
	c-4.4-1.2-8.6-2.3-12.6-3.2c-4-0.9-7.6-1.6-11-2.3C388,60,369.9,57,349.5,53.9c-20.4-3.2-43.1-6.5-65.6-11
	c-11.3-2.2-22.5-4.8-33.3-7.7c-5.4-1.5-10.7-3-16-4.6c-5.3-1.6-10.5-3.1-15.6-4.6c-20.4-5.7-39-9.7-53.3-12.1
	c-14.3-2.4-34.3-4.4-56.1-3c-2.7,0.2-5.5,0.4-8.2,0.7c-2.8,0.3-5.6,0.7-8.3,1.1c-5.5,0.9-11,1.9-16.5,3c-10.9,2.2-21.8,4.3-32.4,5
	c-5.3,0.3-10.5,0.3-15.5-0.3c-2.5-0.3-4.9-0.6-7.3-1.1c-2.4-0.4-4.7-0.9-7-1.5c-5-1.2-9.6-2.6-13.9-4v3.5c0,0,0,0,0,0
	c6,2.6,12.2,5.1,18.6,6.9l2.2,0.6l2.3,0.6c1.5,0.4,3,0.7,4.6,1c3.1,0.6,6.2,1.1,9.3,1.4c12.4,1.2,24.7,0.2,36.4-1
	c11.8-1.2,23-2.6,34-2.4c22.5,0.1,45.3,3.2,68.8,7.9c11.8,2.4,23.7,5.1,36,8.2c6.1,1.5,12.4,3.1,18.6,4.8c6.5,1.8,13.3,3.4,20.1,4.7
	c14.5,3,27.7,4.8,40.4,6.1c12.7,1.3,24.9,2.1,37.2,2.9c12.3,0.9,24.8,1.8,38.2,3.3c13.4,1.6,27.6,3.7,43.3,7.4
	c32.8,8.3,63.9,22.4,96.9,30.9c3.7,1,7.3,1.7,10.9,2.5c3.6,0.8,7.1,1.4,10.6,1.9c7,1.1,13.8,1.7,20.6,2.1
	c13.6,0.7,27.1,0.5,42.3,0.6c13.5-0.1,27.5-0.1,41.5,0.1c14,0.2,28.2,0.2,42.2-0.1c28-0.6,55.3-2.5,79.2-5.7
	c16.2-2.2,29.8-4.6,42.1-7.1c12.3-2.5,23.2-5.1,34-8.3c10.8-3.2,21.4-7,32.9-11.9c2.9-1.2,5.8-2.5,8.8-3.9l4.6-2.2l2.4-1.2l2.5-1.3
	c6.6-3.5,13.2-7.6,20-12.2c6.5-4.4,14.3-9.8,23.2-15.6c8.8-5.7,18.8-11.7,29.5-16.5c2.4-1.1,5.2-2.1,8-2.9c2.8-0.9,5.7-1.6,8.6-2.3
	c5.9-1.3,11.9-2.1,18-2.6c11.2-0.9,22.3-0.7,32.7-0.1V3.8C1009.3,1.8,996.9,0.4,984.2,0.5z"/>
</svg>
