<!-- Generator: Adobe Illustrator 18.1.1, SVG Export Plug-In  -->
<svg version="1.1"
	 xmlns="http://www.w3.org/2000/svg" xmlns:xlink="http://www.w3.org/1999/xlink" xmlns:a="http://ns.adobe.com/AdobeSVGViewerExtensions/3.0/"
	 x="0px" y="0px" width="1022px" height="108.7px" viewBox="0 0 1022 108.7" enable-background="new 0 0 1022 108.7"
	 xml:space="preserve">
<defs>
</defs>
<path fill="#FFECCB" stroke="#FFECCB" stroke-miterlimit="10" d="M1012.6,15.6c-5.9-1.1-11.8-2.2-17.7-3c-3-0.4-5.9-0.8-8.9-1.1
	c-3-0.3-5.9-0.5-8.8-0.7c-23.3-1.4-44.7,0.6-60,3c-15.4,2.3-35.3,6.3-57.1,12.1c-5.5,1.4-11,3-16.7,4.6c-5.6,1.6-11.3,3.2-17.1,4.6
	c-11.6,2.9-23.6,5.4-35.7,7.7c-24.1,4.5-48.5,7.8-70.3,11c-21.8,3.1-41.2,6.2-55.5,8.8c-3.6,0.6-7.5,1.4-11.8,2.3
	c-4.3,0.9-8.8,2-13.5,3.2c-9.5,2.4-19.8,5.2-30.8,8.3c-21.9,6.2-46,13.4-70.1,18.9c-23.6,5.7-47.6,7.6-68.3,7.8
	c-10.3,0.1-19.9-0.1-28.2-0.5c-8.3-0.4-15.4-0.9-20.8-1.4c-10.7-1.2-31.2-2.4-59.3-5.9c-28.1-3.4-63.8-9.3-104.5-20.4
	c-20.4-5.5-42-12.2-64.5-20.2c-5.6-2-11.3-4.1-17.1-6.2l-8.7-3.3l-2.2-0.8l-2-0.8c-1.4-0.6-2.7-1.1-4.1-1.7
	c-11.1-4.8-22.4-10.7-34.4-16.7c-12-6-24.7-12.2-38.6-17.1c-1.7-0.6-3.5-1.2-5.3-1.8l-2.8-0.9c-1-0.3-2-0.6-3-0.8
	c-3.8-0.9-7.6-1.7-11.4-2.3c-7.6-1.2-15.3-1.7-22.9-1.7C27.1,0.4,13.7,1.8,0.5,3.8v10.3c11.2-0.6,23.1-0.8,35.1,0.1
	c6.5,0.5,13,1.3,19.3,2.6c3.1,0.6,6.2,1.4,9.2,2.3c3,0.9,6,1.9,8.6,2.9c11.5,4.8,22.1,10.8,31.6,16.5c9.5,5.7,17.9,11.2,24.8,15.6
	c7.3,4.6,14.4,8.7,21.4,12.2l2.7,1.3l2.5,1.2l4.9,2.2c3.2,1.4,6.3,2.7,9.4,3.9c12.3,4.9,23.6,8.7,35.2,11.9
	c11.5,3.2,23.3,5.8,36.4,8.3c13.2,2.5,27.8,4.8,45.1,7.1c25.6,3.2,54.8,5.2,84.8,5.7c15,0.3,30.1,0.3,45.2,0.1
	c15-0.3,30-0.3,44.5-0.1c16.3-0.1,30.7,0.1,45.3-0.6c7.3-0.4,14.6-1,22-2.1c3.7-0.5,7.5-1.2,11.3-1.9c3.8-0.8,7.7-1.6,11.7-2.5
	c35.4-8.4,68.6-22.6,103.8-30.9c16.8-3.7,32-5.8,46.3-7.4c14.3-1.5,27.7-2.5,40.9-3.3c13.2-0.9,26.2-1.7,39.8-2.9
	c13.6-1.3,27.8-3,43.3-6.1c7.3-1.4,14.5-3,21.5-4.7c6.7-1.7,13.4-3.3,19.9-4.8c13.1-3.1,25.9-5.8,38.5-8.2
	c25.2-4.7,49.6-7.9,73.7-7.9c11.8-0.2,23.8,1.2,36.4,2.4c1.8,0.2,3.6,0.3,5.4,0.5c0.1-3.4,0.5-6.8,0.5-10.1
	C1018.5,16.7,1015.6,16.2,1012.6,15.6z"/>
</svg>
