<?xml version="1.0" encoding="utf-8"?>
<!-- Generator: Adobe Illustrator 19.0.0, SVG Export Plug-In . SVG Version: 6.00 Build 0)  -->
<svg version="1.1" id="Layer_1" xmlns="http://www.w3.org/2000/svg" xmlns:xlink="http://www.w3.org/1999/xlink" x="0px" y="0px"
	 viewBox="0 0 1024 484" style="enable-background:new 0 0 1024 484;" xml:space="preserve">
<style type="text/css">
	.st0{fill:#53C8E9;fill-opacity:0.6;}
</style>
<path id="XMLID_30_" class="st0" d="M1024,0H0v407c5.7,0.1,15.6,0.2,19-0.4c8.5-1.5,14.8-4.3,22.4-7.7c7.3-3.2,12.4-6.2,13.4-6.7
	c13.6-7.7,62.1-23.6,100.7-7.7c20.5,8.5,17,17.2,36.9,22.1c17,4.2,24.1-1,51.5,2.9c18,2.6,16.8,5.1,31.3,6.7c23,2.6,23.6-4,55.9-4.8
	c0,0,26.8-0.7,60.1,5.1c2.9,0.5,5.7,1.1,5.7,1.1c5.8,1.3,9.8,3,40.5,10.4c26.1,6.3,39.2,9.4,48.5,10.6c24.4,3,44.1,1.5,62,0
	c35.8-3,31.9-7.3,49.6-6.7c37.9,1.2,41.5,20.5,77.7,20.2c18-0.2,24.5-5,47.3-2.9c14.9,1.4,26.3,4.8,32.7,6.7
	c20.1,6.1,23.3,10.8,49.6,20.2c13.1,4.7,19.8,7,28.2,7.7c4.5,0.3,15.8,0.9,37.2-5.8c31.3-9.7,31.8-18.5,49.6-20.2
	c18.6-1.8,23.7,7.4,44,9.6c13.6,1.5,33.7-0.2,60.2-15.8V0z"/>
</svg>
