<?xml version="1.0" encoding="utf-8"?>
<!-- Generator: Adobe Illustrator 19.1.0, SVG Export Plug-In . SVG Version: 6.00 Build 0)  -->
<svg version="1.1" id="Layer_9" xmlns="http://www.w3.org/2000/svg" xmlns:xlink="http://www.w3.org/1999/xlink" x="0px" y="0px"
	 viewBox="0 0 88.3 90" enable-background="new 0 0 88.3 90" xml:space="preserve">
<symbol  id="lookLeft" viewBox="-1 -24.8 39 24.8">
	<path fill="#FFFFFF" d="M11.5-11.6c0-2.8-2.3-5.1-5.1-5.1s-5.1,2.3-5.1,5.1s2.3,5.1,5.1,5.1S11.5-8.7,11.5-11.6z"/>
	<path fill="#4D4D4D" d="M7.1-9.7c0-1.3-1-2.3-2.3-2.3s-2.3,1-2.3,2.3s1,2.3,2.3,2.3S7.1-8.4,7.1-9.7z"/>
	<path fill="#FFC95F" d="M12.7-15.9c-0.1,1.3-2.8,2.2-5.9,1.9c-3.2-0.3-5.6-1.6-5.5-2.9s2.8-2.2,5.9-1.9S12.8-17.3,12.7-15.9z"/>
	<path id="L_brow_12_" fill="none" stroke="#4D4D4D" stroke-width="0.6611" stroke-linecap="round" stroke-miterlimit="10" d="
		M0.3-2.5c0.3,0.3,1.6,1.5,3.8,2c2,0.4,3.5,0,4-0.1"/>
	<path id="L_brow_11_" fill="none" stroke="#4D4D4D" stroke-width="0.6611" stroke-linecap="round" stroke-miterlimit="10" d="
		M37-4.9c-0.3,0.3-1.6,1.5-3.8,2c-2,0.4-3.5,0-4-0.1"/>
	<path fill="#FFFFFF" d="M25.8-11.6c0-2.8,2.3-5.1,5.1-5.1s5.1,2.3,5.1,5.1s-2.3,5.1-5.1,5.1S25.8-8.7,25.8-11.6z"/>
	<path fill="#4D4D4D" d="M27.1-9.7c0-1.3,1-2.3,2.3-2.3s2.3,1,2.3,2.3s-1,2.3-2.3,2.3S27.1-8.4,27.1-9.7z"/>
	<path fill="#FFC95F" d="M24.6-15.9c0.1,1.3,2.8,2.2,5.9,1.9c3.2-0.3,5.6-1.6,5.5-2.9c-0.1-1.3-2.8-2.2-5.9-1.9S24.5-17.3,24.6-15.9
		z"/>
	<path id="nose_6_" fill="none" stroke="#4D4D4D" stroke-width="0.517" stroke-linecap="round" stroke-miterlimit="10" d="
		M16.2-15.4c0.3,0.2,1,0.5,1.9,0.5c1,0,1.7-0.3,1.9-0.5"/>
	<path fill="#4D4D4D" stroke="#4D4D4D" stroke-width="0.5146" stroke-miterlimit="10" d="M22.3-21.5c-1.8-0.8-3.4-0.7-4-0.7
		c-3.1,0.1-5.3,1.8-5.4,1.5c-0.1-0.1,0.4-0.6,1.5-1.5c0.3-0.3,1.1-1,2.2-1.7c0.3-0.2,1.1-0.7,1.9-0.7c0,0,0.1,0,0.1,0
		c0.7,0.1,1.2,0.4,1.4,0.6c0.8,0.6,1.5,1.3,2.1,1.9c1.1,1,2,1.5,2,1.6C24-20.5,23.2-21.1,22.3-21.5z"/>
	<polygon display="none" fill="none" points="-1,-1 38,-1 38,-24 -1,-24 	"/>
</symbol>
<path fill="#FFC95F" stroke="#FFC95F" stroke-width="1.0791" stroke-miterlimit="10" d="M70.1,86.6c-1.9,0.8-4.6-2.1-15.2-9.7
	C46.2,70.5,44.4,70,42.7,70c-1.9,0-4,0.4-13.9,7.8c-9.2,6.8-12.5,10.1-14.1,9.3c-1.2-0.6-0.5-3.4,0.7-8.3c1.6-6.1,3-8.5,4.6-13.6
	c2.2-6.8,3.7-11.9,1.5-14c-2-1.9-6.4-0.6-9.4,0.3C5.6,53.2,2.8,56.7,2,56c-1.1-0.9,1.9-8.8,8.7-14.7c7-6.1,11-4,18-10.2
	c1.7-1.5,6.5-6,8.7-13.1c2.8-9.1-1.1-15.3,1.3-16.7c2.7-1.5,10.4,4.4,14.8,12c4.4,7.6,2.9,12.9,7.1,14.5c1.9,0.8,5.5-0.3,12.8-2.4
	c8.4-2.5,10.7-3.8,11.6-3c1.4,1.2-2.4,5.3-7.5,13.5c-5.1,8.2-7.6,12.3-8.6,17.3c-0.6,2.9,0,8.6,1.3,19.7
	C71.2,82.9,71.8,85.9,70.1,86.6z"/>
<use xlink:href="#lookLeft"  width="39" height="24.8" x="-1" y="-24.8" transform="matrix(0.9926 -0.1218 -0.1218 -0.9926 25 35)" overflow="visible"/>
<path id="XMLID_272_" fill="#FFFFFF" d="M48.2,24.7c1,0,1.8,0.7,1.8,1.7c0,0.8-0.8,1.7-1.8,1.7s-1.8-0.7-1.8-1.7
	C46.4,25.4,47.2,24.7,48.2,24.7z"/>
<path id="XMLID_271_" fill="#FFFFFF" d="M46.2,15.5c0.8,0,1.5,0.7,1.5,1.5c0,0.8-0.7,1.5-1.5,1.5c-0.8,0-1.5-0.7-1.5-1.5
	C44.7,16.2,45.4,15.5,46.2,15.5z"/>
<path id="XMLID_270_" fill="#FFFFFF" d="M43.2,8.5c0.7,0,1.4,0.7,1.4,1.5c0,0.8-0.7,1.5-1.4,1.5c-0.7,0-1.4-0.7-1.4-1.5
	C41.9,9.2,42.6,8.5,43.2,8.5z"/>
<path id="XMLID_269_" fill="#FFFFFF" d="M39.4,2.1c0.6-0.4,1.3-0.1,1.8,0.6c0.5,0.7,0.4,1.5-0.1,1.9C40.5,5,39.7,4.7,39.3,4
	S38.8,2.5,39.4,2.1z"/>
<path id="XMLID_284_" fill="#FFFFFF" d="M64,79.2c-0.5,0.5-1.4,0.3-2-0.2c-0.7-0.5-0.8-1.4-0.5-1.8c0.5-0.5,1.4-0.3,2,0.2
	C64.1,77.9,64.5,78.9,64,79.2z"/>
<path id="XMLID_283_" fill="#FFFFFF" d="M68.1,82.2c0.4,0.6,0.3,1.1,0,1.5c-0.4,0.2-0.9,0.1-1.3-0.5c-0.4-0.6-0.3-1.1,0-1.5
	C67.1,81.4,67.7,81.5,68.1,82.2z"/>
<path id="XMLID_282_" fill="#FFFFFF" d="M59.9,73.5c-0.5,0.5-1.5,0.5-2.2-0.2c-0.7-0.5-0.8-1.4-0.3-1.8C58,71,59,71,59.6,71.7
	C60.3,72.2,60.3,73,59.9,73.5z"/>
<path id="XMLID_281_" fill="#FFFFFF" d="M55.8,66.5c-0.7,0.7-1.8,0.8-2.7,0.2c-0.7-0.7-0.7-1.7,0-2.4c0.7-0.7,1.8-0.8,2.7-0.2
	C56.6,64.8,56.4,65.8,55.8,66.5z"/>
<path id="XMLID_260_" fill="#FFFFFF" d="M29.8,71.9c-0.5,0.7-1.5,1-2.2,0.5c-0.7-0.3-0.8-1.4-0.3-2c0.5-0.7,1.5-1,2.2-0.5
	C30.3,70.3,30.3,71.2,29.8,71.9z"/>
<path id="XMLID_259_" fill="#FFFFFF" d="M34.4,64.5c-0.5,0.7-1.7,1-2.5,0.3c-0.8-0.5-1.2-1.5-0.7-2.4c0.5-0.7,1.7-1,2.5-0.3
	C34.5,62.8,34.9,63.8,34.4,64.5z"/>
<path id="XMLID_258_" fill="#FFFFFF" d="M23.5,77.7c-0.5,0.7-1.4,0.8-2,0.5c-0.7-0.3-0.7-1.2-0.2-1.8c0.5-0.7,1.4-1,2-0.7
	C24,76.2,24,77,23.5,77.7z"/>
<path id="XMLID_257_" fill="#FFFFFF" d="M18,83.4c-0.5,0.7-1.4,1-1.8,0.7c-0.5-0.3-0.5-1.2,0-1.8c0.5-0.7,1.4-1,1.8-0.7
	S18.5,82.7,18,83.4z"/>
<path id="XMLID_276_" fill="#FFFFFF" d="M75.2,30.9c-0.8,0.2-1.8-0.2-1.8-0.7s0.5-1.2,1.5-1.4c0.8-0.2,1.8,0.2,1.8,0.7
	C76.6,30.3,76,30.8,75.2,30.9z"/>
<path id="XMLID_275_" fill="#FFFFFF" d="M82,25.9c-0.5,0.2-1-0.3-1.2-0.8s0.2-1.2,0.7-1.2c0.5-0.2,1,0.3,1.2,0.8
	C82.7,25.3,82.5,25.8,82,25.9z"/>
<path id="XMLID_230_" fill="#FFFFFF" d="M5.1,52.8C5,53.3,4.5,53.6,4,53.4c-0.5-0.2-0.7-0.7-0.3-1.4c0.2-0.5,0.8-0.8,1.4-0.7
	C5.5,51.6,5.5,52.2,5.1,52.8z"/>
<path id="XMLID_229_" fill="#FFFFFF" d="M10.3,47.5c0.3,0.4-0.2,1.3-1,1.8c-0.8,0.5-1.6,0.5-1.9,0c-0.3-0.4,0.2-1.3,1-1.8
	C9.1,46.9,9.9,46.9,10.3,47.5z"/>
</svg>
